{"tafsirs":[{"id":83338,"resource_id":169,"verse_key":"11:1","language_id":38,"text":"<h2>Which was revealed in Makkah</h2><h2>Surah Hud made the Prophet's Hair turn Gray</h2><p>Abu `Isa At-Tirmidhi recorded from Ibn `Abbas that Abu Bakr said, \"O Messenger of Allah, verily your hair has turned gray.\" The Prophet replied,</p><p>«شَيَّبَتْنِي هُودٌ وَالْوَاقِعَةُ وَالْمُرْسَلَاتُ وَعَمَّ يَتَسَاءَلُونَ وَإِذَا الشَّمْسُ كُوِّرَت»</p><p>(Surahs Hud, Al-Waqi`ah, Al-Mursalat, `Amma Yatasa'lun An-Naba' and Idhash-Shamsu Kuwwirat At-Takwir have turned my hair gray.) In another narration he said,</p><p>«هُودٌ وَأَخَوَاتُهَا»</p><p>(Surah Hud and its sisters...)</p><p>بِسْمِ اللَّهِ الرَّحْمَـنِ الرَّحِيمِ</p><p>In the Name of Allah, the Most Gracious, the Most Merciful.</p><h2>The Qur'an and its Call to (worship) Allah Alone</h2><p>A discussion concerning the letters of the alphabet (which appear at the beginning of some chapters of the Qur'an) has already preceded at the beginning of Surat Al-Baqarah. That discussion is sufficient without any need for repetition here. Concerning Allah's statement,</p><p>أُحْكِمَتْ ءايَـتُهُ ثُمَّ فُصِّلَتْ</p><p>(The Ayat whereof are perfect and then explained in detail) This means perfect in its wording, detailed in its meaning. Thus, it is complete in its form and its meaning. This interpretation was reported from Mujahid and Qatadah, and Ibn Jarir At-Tabari preferred it. Concerning the meaning of Allah's statement,</p><p>مِن لَّدُنْ حَكِيمٍ خَبِيرٍ</p><p>(from One (Allah), Who is All-Wise, Well-Acquainted.) This means that it (the Qur'an) is from Allah, Who is Most Wise in His statements and His Laws, and Most Aware of the final outcome of matters.</p><p>أَلاَّ تَعْبُدُواْ إِلاَّ اللَّهَ</p><p>((Saying) worship none but Allah.) This means that this Qur'an descended, perfect and detailed, with the purpose of Allah's worship alone, without any partners. This is similar to the statement of Allah, the Exalted,</p><p>وَمَآ أَرْسَلْنَا مِن قَبْلِكَ مِن رَّسُولٍ إِلاَّ نُوحِى إِلَيْهِ أَنَّهُ لا إِلَـهَ إِلاَّ أَنَاْ فَاعْبُدُونِ</p><p>(And We did not send any Messenger before you but We revealed to him (saying): There is no God but I, so worship Me.) 21:25 It is similar to Allah's statement,</p><p>وَلَقَدْ بَعَثْنَا فِى كُلِّ أُمَّةٍ رَّسُولاً أَنِ اعْبُدُواْ اللَّهَ وَاجْتَنِبُواْ الْطَّـغُوتَ</p><p>(And verily, We have sent among every Ummah a Messenger (proclaiming): `Worship Allah (Alone), and avoid Taghut (calling false deities.)')16:36 In reference to Allah's statement,</p><p>إِنَّنِى لَكُمْ مِّنْهُ نَذِيرٌ وَبَشِيرٌ</p><p>(Verily, I am unto you from Him a warner and a bringer of glad tidings.) This means, \"Verily, I am unto you a warner of the punishment if you oppose Him (Allah), and a bringer of the good news of reward if you obey Him.\" This meaning has been recorded in the authentic Hadith which states that the Messenger of Allah ﷺ ascended mount As-Safa and called out to his near relatives of the Quraysh tribe. When they gathered around him, he said,</p><p>«يَا مَعْشَرَ قُرَيْشٍ أَرَأَيْتُمْ لَوْ أَخْبَرْتُكُمْ أَنَّ خَيْلًا تُصَبِّحُكُمْ أَلَسْتُمْ مُصَدِّقِيَّ؟»</p><p>(O people of Quraysh, if I informed you that a cavalry was going to attack you in the morning, would you not believe me) They replied, \"We have not found you to be a liar.\" He said,</p><p>«فَإِنِّي نَذِيرٌ لَكُمْ بَيْنَ يَدَي عَذَابٍ شَدِيد»</p><p>(Verily I am a warner unto you before a severe punishment.) Concerning His statement,</p><p>وَأَنِ اسْتَغْفِرُواْ رَبَّكُمْ ثُمَّ تُوبُواْ إِلَيْهِ يُمَتِّعْكُمْ مَّتَاعًا حَسَنًا إِلَى أَجَلٍ مُّسَمًّى وَيُؤْتِ كُلَّ ذِي فَضْلٍ فَضْلَهُ</p><p>(And (commanding you): `Seek the forgiveness of your Lord, and turn to Him in repentance, that He may grant you good enjoyment, for a term appointed, and bestow His abounding grace to every owner of grace.) This means, \"I am commanding you to seek forgiveness from previous sins and to turn to Allah from future sins, and thereafter you abide by that.\"</p><p>يُمَتِّعْكُمْ مَّتَاعًا حَسَنًا</p><p>(that He may grant you good enjoyment,) This is in reference to this worldly life.</p><p>إِلَى أَجَلٍ مُّسَمًّى وَيُؤْتِ كُلَّ ذِي فَضْلٍ فَضْلَهُ</p><p>(for a term appointed, and bestow His abounding grace to every owner of grace.) This refers to the Hereafter, according to Qatadah. \"This is like the statement of Allah,</p><p>مَنْ عَمِلَ صَـلِحاً مِّن ذَكَرٍ أَوْ أُنْثَى وَهُوَ مُؤْمِنٌ فَلَنُحْيِيَنَّهُ حَيَوةً طَيِّبَةً</p><p>(Whoever works righteousness -- whether male or female -- while a true believer, verily to him We will give a good life.)16:97 Concerning Allah's statement,</p><p>وَإِن تَوَلَّوْاْ فَإِنِّي أَخَافُ عَلَيْكُمْ عَذَابَ يَوْمٍ كَبِيرٍ</p><p>(But if you turn away, then I fear for you the torment of a Great Day.) This is a severe threat for whoever turns away from the commandments of Allah, the Exalted, and rejects His Messengers. Verily, the punishment will afflict such a person on the Day of Resurrection and there will be no escape from it.</p><p>إِلَى الله مَرْجِعُكُمْ</p><p>(To Allah is your return,) This is means your return on the Day of Judgement.</p><p>وَهُوَ عَلَى كُلِّ شَىْءٍ قَدِيرٌ</p><p>(and He is able to do all things.) This means that He is capable of doing whatever He wishes, whether it be goodness towards His Awliya' (friends and allies), or vengeance upon His enemies. This also includes His ability to repeat the creation of His creatures on the Day of Resurrection. This section encourages fear, just as the previous section encourages hope.</p>","slug":"en-tafisr-ibn-kathir"},{"id":181657,"resource_id":169,"verse_key":"11:2","language_id":38,"text":"","slug":"en-tafisr-ibn-kathir"},{"id":181656,"resource_id":169,"verse_key":"11:3","language_id":38,"text":"","slug":"en-tafisr-ibn-kathir"},{"id":181655,"resource_id":169,"verse_key":"11:4","language_id":38,"text":"","slug":"en-tafisr-ibn-kathir"},{"id":83339,"resource_id":169,"verse_key":"11:5","language_id":38,"text":"<h2>Allah is Aware of All Things</h2><p>Ibn `Abbas said, \"They used to dislike facing the sky with their private parts, particularly during sexual relations. Therefore, Allah revealed this verse.\" Al-Bukhari recorded by way of Ibn Jurayj, who reported from Muhammad bin `Abbad bin Ja`far who said, \"Ibn `Abbas recited, (أَلَا إِنَّهُمْ تَثْنَونِي صُدُورُهُمْ) \"Behold their breasts did fold up.\" So I said: `O Abu Al-`Abbas! What does -their breasts did fold up- mean' He said, `The man used to have sex with his woman, but he would be shy, or he used to have answering the call of nature (in an open space) but, he would be shy. Therefore, this verse, </p><div class=\"arabic uthmani\">أَلا إِنَّهُمْ يَثْنُونَ صُدُورَهُمْ</div><p>(No doubt! They did fold up their breasts,) was revealed.\"' In another wording of this narration, Ibn `Abbas said, \"There were people who used to be shy to remove their clothes while answering the call of nature in an open space and thus be naked exposed to the sky. They were also ashamed of having sexual relations with their women due to fear of being exposed towards the sky. Thus, this was revealed concerning them.\" Al-Bukhari reported that Ibn `Abbas said that </p><div class=\"arabic uthmani\">يَسْتَغْشُونَ</div><p>(they cover themselves) means that they cover their heads. </p>","slug":"en-tafisr-ibn-kathir"},{"id":83340,"resource_id":169,"verse_key":"11:6","language_id":38,"text":"<h2>Allah is Responsible for the Provisions of All Creatures</h2><p>Allah, the Exalted, informs that He is responsible for the provisions of all the creatures that dwell in the earth, whether they are small, large, sea-dwelling or land-dwelling. He knows their place of dwelling and their place of deposit. This means that He knows where their journeying will end in the earth and where they will seek shelter when they wish to nest. This place of nesting is also considered their place of deposit. `Ali bin Abi Talhah and others reported from Ibn `Abbas that he said concerning the statement, </p><div class=\"arabic uthmani\">رِزْقُهَا وَيَعْلَمُ</div><p>(And He knows its dwelling place) that it means where it resides. In reference to the statement, </p><div class=\"arabic uthmani\">مُسْتَقَرَّهَا</div><p>(and its deposit.) he (Ibn `Abbas) said it means where it will die. Allah informs us that all of this is written in a Book with Allah that explains it in detail. This is similar to Allah's statement, </p><div class=\"arabic uthmani\">وَمَا مِن دَآبَّةٍ فِى الاٌّرْضِ وَلاَ طَائِرٍ يَطِيرُ بِجَنَاحَيْهِ إِلاَّ أُمَمٌ أَمْثَـلُكُمْ مَّا فَرَّطْنَا فِى الكِتَـبِ مِن شَىْءٍ ثُمَّ إِلَى رَبِّهِمْ يُحْشَرُونَ </div><p>(There is not a moving creature on earth, nor a bird that flies with its two wings, but are communities like you. We have neglected nothing in the Book, then unto their Lord they (all) shall be gathered.) 6:38, and </p><div class=\"arabic uthmani\">وَعِندَهُ مَفَاتِحُ الْغَيْبِ لاَ يَعْلَمُهَآ إِلاَّ هُوَ وَيَعْلَمُ مَا فِى الْبَرِّ وَالْبَحْرِ وَمَا تَسْقُطُ مِن وَرَقَةٍ إِلاَّ يَعْلَمُهَا وَلاَ حَبَّةٍ فِى ظُلُمَـتِ الاٌّرْضِ وَلاَ رَطْبٍ وَلاَ يَابِسٍ إِلاَّ فِى كِتَـبٍ مُّبِينٍ </div><p>(And with Him are the keys of the Ghayb (all that is hidden and unseen), none knows them but He. And He knows whatever there is in the land and in the sea; not a leaf falls, but he knows it. There is not a grain in the darkness of the earth nor anything fresh or dry, but is written in a Clear Record.) 6:59 </p>","slug":"en-tafisr-ibn-kathir"},{"id":83341,"resource_id":169,"verse_key":"11:7","language_id":38,"text":"<h2>Allah created the Heavens and the Earth in Six Days</h2><p>Allah, the Exalted, informs of His power over all things, and that He created the heavens and the earth in six days. He mentions that His Throne was over the water before that, just as Imam Ahmad recorded that `Imran bin Husayn said, \"The Messenger of Allah ﷺ said,</p><p>«اقْبَلُوا الْبُشْرَى يَا بَنِي تَمِيم»</p><p>(Accept the glad tidings, O tribe of Tamim!) They said, `Verily you have brought us glad tidings and you have given us.' Then he said,</p><p>«اقْبَلُوا الْبُشْرَى يَا أَهْلَ الْيَمَن»</p><p>(Accept the glad tidings, O people of Yemen!) They said, `We accept. Therefore, inform us about the beginning of this matter and how it was.' He said,</p><p>«كَانَ اللهُ قَبْلَ كُلِّ شَيْءٍ، وَكَانَ عَرْشُهُ عَلَى الْمَاءِ، وَكَتَبَ فِي اللَّوْحِ الْمَحْفُوظِ ذِكْرَ كُلِّ شَيْء»</p><p>(Allah was before everything and His Throne was over the water. He then wrote in the Preserved Tablet mentioning everything.) Then a man came to me and said, \"O `Imran, your she camel has escaped from her fetter.\" I then went out after her and I do not know what was said after I left.\" This Hadith has been recorded in the Two Sahihs of Al-Bukhari and Muslim with a variety of wordings. In Sahih Muslim, it is recorded that `Abdullah bin `Amr bin Al-`As said that the Messenger of Allah ﷺ said,</p><p>«إِنَّ اللهَ قَدَّرَ مَقَادِيرَ الْخَلَائِقِ قَبْلَ أَنْ يَخْلُقَ السَّموَاتِ وَالْأَرْضَ بِخَمْسِينَ أَلْفَ سَنَةٍ وَكَانَ عَرْشُهُ عَلَى الْمَاء»</p><p>(Verily Allah measured the amount of sustenance of the creatures fifty thousand years before He created the heavens and the earth, and His Throne was over the water.) Under the explanation of this verse, Al-Bukhari recorded from Abu Hurayrah that the Messenger of Allah ﷺ said,</p><p>«قَالَ اللهُ عَزَّ وَجَلَّ: أَنْفِقْ أُنْفِقْ عَلَيْك»</p><p>(Allah, the Mighty and Sublime, said, `Spend and I will spend on you.') And he said,</p><p>«يَدُ اللهِ مَلْأَى لَا يَغِيضُهَا نَفَقَةٌ، سَحَّاءُ اللَّيْلَ وَالنَّهَار»</p><p>(Allah's Hand is full, and it is not diminished by spending throughout the night and the day.) He also said,</p><p>«أَفَرَأَيْتُمْ مَا أَنْفَقَ مُنْذُ خَلَقَ السَّموَاتِ وَالْأَرْضَ فَإِنَّهُ لَمْ يَغِضْ مَا فِي يَمِينِهِ، وَكَانَ عَرْشُهُ عَلَى الْمَاءِ، وَبِيَدِهِ الْمِيزَانُ يَخْفِضُ وَيَرْفَع»</p><p>(Have you seen what has been spent since the creation of the heavens and the earth Verily it does not diminish what is in His Right Hand (in the slightest) and His Throne was over the water. In His Hand is the Scale and he lowers and raises it.) Concerning Allah's statement,</p><p>لِيَبْلُوَكُمْ أَيُّكُمْ أَحْسَنُ عَمَلاً</p><p>(that He might try you, which of you is the best in deeds.) This means that He created the heavens and the earth for the benefit of His servants, whom He created so that they may worship Him and not associate anything with Him as a partner. Allah did not create this creation (of the heavens and the earth) out of mere frivolity. This is similar to His statement,</p><p>وَمَا خَلَقْنَا السَّمَآءَ وَالاٌّرْضَ وَمَا بَيْنَهُمَا بَـطِلاً ذَلِكَ ظَنُّ الَّذِينَ كَفَرُواْ فَوَيْلٌ لِّلَّذِينَ كَفَرُواْ مِنَ النَّارِ</p><p>(And We created not the heaven and the earth and all that is between them without purpose! That is the consideration of those who disbelieve! Then woe to those who disbelieve from the Fire!) 38: 27 Allah the Exalted, said,</p><p>أَفَحَسِبْتُمْ أَنَّمَا خَلَقْنَـكُمْ عَبَثاً وَأَنَّكُمْ إِلَيْنَا لاَ تُرْجَعُونَ - فَتَعَـلَى اللَّهُ الْمَلِكُ الْحَقُّ لاَ إِلَـهَ إِلاَّ هُوَ رَبُّ الْعَرْشِ الْكَرِيمِ</p><p>(Did you think that We created you in play (without any purpose), and that you would not be brought back to Us So Exalted is Allah, the True King: there is no God but He, the Lord of the Supreme Throne!) 23:115-116 Allah, the Exalted, said,</p><p>وَمَا خَلَقْتُ الْجِنَّ وَالإِنسَ إِلاَّ لِيَعْبُدُونِ</p><p>(And I (Allah) created not the Jinn and mankind except that they should worship Me (Alone).) 51:56 Concerning the statement of Allah,</p><p>لِيَبْلُوَكُمْ</p><p>(that He might try you,) It means so that He (Allah) may test you. Concerning the statement,</p><p>أَيُّكُمْ أَحْسَنُ عَمَلاً</p><p>(which of you is the best in deeds.) It is important to note here that Allah did not say, \"Which of you has done the most deeds.\" Rather, He said, \"Best in deeds.\" A deed cannot be considered a good deed until it is done sincerely for Allah, the Mighty and Sublime, and it must be in accordance with the legislation of the Messenger of Allah ﷺ. Whenever a deed lacks one of these conditions, then it is null and void.</p><h2>The Polytheists hasten their Torment by arguing against Resurrection after Death</h2><p>Concerning Allah's statement,</p><p>وَلَئِن قُلْتَ إِنَّكُمْ مَّبْعُوثُونَ مِن بَعْدِ الْمَوْتِ</p><p>(But if you were to say to them: \"You shall indeed be raised up after death.\") Allah, the Exalted, is saying, \"O Muhammad, if you were to inform these polytheists that Allah is going to resurrect them after their death, just as He created them originally (they would still reject).\" Even though they know that Allah, the Exalted, is the One Who created the heavens and the earth, just as He said,</p><p>وَلَئِن سَأَلْتَهُم مَّنْ خَلَقَهُمْ لَيَقُولُنَّ اللَّهُ</p><p>(And if you ask them who created them, they will surely say: \"Allah.\")43:87 Allah says,</p><p>وَلَئِن سَأَلْتَهُمْ مَّنْ خَلَقَ السَّمَـوَتِ وَالاٌّرْضَ وَسَخَّرَ الشَّمْسَ وَالْقَمَرَ لَيَقُولُنَّ اللَّهُ</p><p>(And if you were to ask them: \"Who has created the heavens and the earth and subjected the sun and the moon\" They will surely reply: \"Allah.\") 29:61 Even after their awareness of this (Allah's creating), they still reject the resurrection and the promised return on the Day of Judgement. Yet, in reference to ability, the resurrection is easier (for Allah to perform) than the original creation. As Allah said,</p><p>وَهُوَ الَّذِى يَبْدَأُ الْخَلْقَ ثُمَّ يُعِيدُهُ وَهُوَ أَهْوَنُ عَلَيْهِ</p><p>(And He it is Who originates the creation, then He will repeat it (after it has perished); and this is easier for Him.) 30:27 Allah also said,</p><p>مَّا خَلْقُكُمْ وَلاَ بَعْثُكُمْ إِلاَّ كَنَفْسٍ وَحِدَةٍ</p><p>(The creation of you all and the resurrection of you all are only as (the creation and resurrection of) a single person.) 31:28 Concerning the statement,</p><p>إِنْ هَـذَا إِلاَّ سِحْرٌ مُّبِينٌ</p><p>(This is nothing but obvious magic.) The polytheists say this due to their disbelief and obstinacy. They say, \"We do not believe your claim that resurrection will occur.\" They also say, \"He (Muhammad) only says this (resurrection of the dead) because he is bewitched, and he wants you to follow him in what his bewitchment tells him. Concerning Allah's statement,</p><p>وَلَئِنْ أَخَّرْنَا عَنْهُمُ الْعَذَابَ إِلَى أُمَّةٍ مَّعْدُودَةٍ</p><p>(And if We delay the torment for them till a determined term,) Allah, the Exalted, is saying \"If We delay the torment and the destruction of these polytheists until an appointed time and a period determined, and We promise them a specific time period (of life), they would still say, in rejection and haste;</p><p>مَا يَحْبِسُهُ</p><p>(What keeps it back) They mean by this, \"What delays this torment from overtaking us\" Both rejection and doubt are their very nature. Therefore, they have no escape or refuge from the torment.</p><h2>The Meanings of the Word Ummah</h2><p>The word Ummah is used in the Qur'an and Sunnah with a number of different meanings. Sometimes when it is used it means a specified period of time. An example is the statement of Allah, the Exalted, in this verse,</p><p>إِلَى أُمَّةٍ مَّعْدُودَةٍ</p><p>(till a determined Ummah (term),) This is also the meaning in the statement of Allah in Surah Yusuf,</p><p>وَقَالَ الَّذِى نَجَا مِنْهُمَا وَادَّكَرَ بَعْدَ أُمَّةٍ</p><p>(Then the man who was released, now after Ummah (some time) remembered.) 12:45 The word Ummah is also used to refer to the Imam (leader) who is followed. An example of this is in the statement of Allah,</p><p>إِنَّ إِبْرَهِيمَ كَانَ أُمَّةً قَـنِتًا لِلَّهِ حَنِيفًا وَلَمْ يَكُ مِنَ الْمُشْرِكِينَ</p><p>(Verily, Ibrahim was an Ummah, obedient to Allah, Hanif, and he was not of those who were polytheists.) 16:120 The word Ummah is also used to mean religion and religious creed. This is as Allah mentions concerning the polytheists, that they said,</p><p>إِنَّا وَجَدْنَآ ءَابَآءَنَا عَلَى أُمَّةٍ وَإِنَّا عَلَى ءَاثَـرِهِم مُّقْتَدُونَ</p><p>(Verily, we found our fathers following a certain way and religion, and we will indeed follow their footsteps. ) 43:23 The word Ummah is also used to mean a group (of people). This is as Allah says,</p><p>وَلَمَّا وَرَدَ مَآءَ مَدْيَنَ وَجَدَ عَلَيْهِ أُمَّةً مِّنَ النَّاسِ يَسْقُونَ</p><p>(And when he arrived at the water (well) of Madyan, he found there a group of men watering (their flocks).) 28:23 Allah also said,</p><p>وَلَقَدْ بَعَثْنَا فِى كُلِّ أُمَّةٍ رَّسُولاً أَنِ اعْبُدُواْ اللَّهَ وَاجْتَنِبُواْ الْطَّـغُوتَ</p><p>(And verily, We have sent among every Ummah a Messenger (proclaiming): \"Worship Allah (Alone), and avoid Taghut.\") 16:36 Allah also said,</p><p>وَلِكُلِّ أُمَّةٍ رَّسُولٌ فَإِذَا جَآءَ رَسُولُهُمْ قُضِىَ بَيْنَهُمْ بِالْقِسْطِ وَهُمْ لاَ يُظْلَمُونَ</p><p>(And for every Ummah there is a Messenger; when their Messenger comes, the matter will be judged between them with justice, and they will not be wronged.) 10:47 The meaning of Ummah here is those people who have had a Messenger sent among them. The meaning of Ummah in this context includes the believers and the disbelievers among them. This is like what has been recorded in Sahih Muslim,</p><p>«وَالَّذِي نَفْسِي بِيَدِهِ لَا يَسْمَعُ بِي أَحَدٌ مِنْ هَذِهِ الْأُمَّةِ يَهُودِيٌّ وَلَا نَصْرَانِيٌّ ثُمَّ لَا يُؤْمِنُ بِي إِلَّا دَخَلَ النَّار»</p><p>(By He in Whose Hand is my soul! there is no one of this Ummah, whether he be a Jew or Christian, who hears of me and does not believe in me, except that he will enter the Hell- fire.) In reference to the Ummah of followers, then they are those who believe in the Messengers, as Allah said,</p><p>كُنتُمْ خَيْرَ أُمَّةٍ أُخْرِجَتْ لِلنَّاسِ</p><p>(You (the followers of Prophet Muhammad) are the best Ummah ever raised up for mankind.) 3:110 In the Sahih the Prophet said,</p><p>«فَأَقُولُ: أُمَّتِي أُمَّتِي»</p><p>(Then I will say, \"My Ummah (followers), my Ummah!\") The word Ummah is also used to mean a sect or party. An example of this usage is in the statement of Allah,</p><p>وَمِن قَوْمِ مُوسَى أُمَّةٌ يَهْدُونَ بِالْحَقِّ وَبِهِ يَعْدِلُونَ</p><p>(And of the people of Musa there is an Ummah who lead (the men) with truth and established justice therewith.) 7:159 Likewise is His statement,</p><p>مِّنْ أَهْلِ الْكِتَـبِ أُمَّةٌ قَآئِمَةٌ</p><p>(A party of the People of the Scripture stand for the right.) 3:113</p>","slug":"en-tafisr-ibn-kathir"},{"id":181654,"resource_id":169,"verse_key":"11:8","language_id":38,"text":"","slug":"en-tafisr-ibn-kathir"},{"id":181653,"resource_id":169,"verse_key":"11:9","language_id":38,"text":"","slug":"en-tafisr-ibn-kathir"},{"id":181652,"resource_id":169,"verse_key":"11:10","language_id":38,"text":"","slug":"en-tafisr-ibn-kathir"}],"pagination":{"per_page":10,"current_page":1,"next_page":2,"total_pages":13,"total_records":123}}
