{"tafsirs":[{"id":68607,"resource_id":165,"verse_key":"11:1","language_id":20,"text":"<p>আলিফ লা-ম রা। এ (কুরআন) এমন গ্রন্থ যার আয়াতগুলি মজবুত (সুবিন্যস্ত) করা হয়েছে,[১] অতঃপর বিশদভাবে বর্ণনা করা হয়েছে[২] প্রজ্ঞাময়, মহাজ্ঞাতা (আল্লাহ)র পক্ষ হতে। [৩]</p><p>[১] অর্থাৎ, তা এত পাকাপোক্ত যে, তার শব্দবিন্যাস ও অর্থ বিবৃতিতে কোন প্রকার ত্রুটি নেই। অথবা তার মধ্যে কোন অস্পষ্টতা ও জটিলতা নেই। অথবা তা পরিবর্তন ও রহিত হওয়ার নয়।</p><p>[২] তারপর তাতে আহকাম ও শরয়ী বিধি-বিধান, নসীহত ও কাহিনী, আক্বায়েদ ও ঈমানসংক্রান্ত বিষয় এবং চরিত্র ও ব্যবহার নীতি-নৈতিকতার বিষয়গুলোকে যেভাবে পরিষ্কার ও বিস্তারিতভাবে বর্ণনা করা হয়েছে, পূর্ব কিতাবসমূহে তার দৃষ্টান্ত মিলে না।</p><p>[৩] অর্থাৎ, আপন বাণীতে তিনি প্রজ্ঞাময়, ফলে তাঁর পক্ষ থেকে অবতীর্ণকৃত বাণী হিকমত থেকে খালি নয়। তিনি মহাজ্ঞাতাও অর্থাৎ, তিনি সমস্ত বিষয় ও তার শেষ পরিণতি সম্পর্কে অবগত আছেন। ফলে তাঁর কথার উপর আমল করার মাধ্যমেই মানুষ অমঙ্গল থেকে বাঁচতে পারবে।</p>","slug":"bn-tafsir-ahsanul-bayaan"},{"id":68608,"resource_id":165,"verse_key":"11:2","language_id":20,"text":"<p>এই (বলা হয়েছে) যে, আল্লাহ ছাড়া কারো উপাসনা করো না; আমি (নবী) তাঁর পক্ষ থেকে তোমাদের জন্য সতর্ককারী ও সুসংবাদদাতা।</p>","slug":"bn-tafsir-ahsanul-bayaan"},{"id":68609,"resource_id":165,"verse_key":"11:3","language_id":20,"text":"<p>আরও এই যে, তোমরা নিজেদের প্রতিপালকের নিকট (পাপের জন্য) ক্ষমা প্রার্থনা কর, অতঃপর তাঁর দিকে প্রত্যাবর্তন কর, তিনি নির্দিষ্ট কাল পর্যন্ত তোমাদেরকে সুখ-সম্ভোগ দান করবেন[১] এবং প্রত্যেক মর্যাদাবান ব্যক্তিকে তার যথাযথ মর্যাদা দান করবেন।[২] আর যদি তোমরা মুখ ফিরিয়ে নাও, তাহলে আমি তোমাদের জন্য মহাদিনের[৩] শাস্তির আশঙ্কা করি।</p><p>[১] যে পার্থিব সুখ-সরঞ্জামকে কুরআন 'ধোঁকার সরঞ্জাম' বলেছে, সেই পার্থিব সুখ-সরঞ্জামকেই এখানে 'উৎকৃষ্ট সরঞ্জাম' বলে অভিহিত করেছে। এর মর্মার্থ হল এই যে, যে ব্যক্তি আখেরাত থেকে অমনোযোগী হয়ে পার্থিব সরঞ্জাম দ্বারা উপকৃত হবে, তার জন্য তা 'ধোঁকার সরঞ্জাম' রূপে গণ্য হবে, কারণ এর পরে তাকে নিকৃষ্ট পরিণামের সম্মুখীন হতে হবে। আর যে আখেরাতের জন্য প্রস্ত্ততি নেওয়ার সাথে সাথে তার দ্বারা উপকৃত হবে, তার জন্য এই কিছু দিনের সরঞ্জাম 'উৎকৃষ্ট সরঞ্জাম'। কারণ সে তা আল্লাহর নির্দেশ অনুযায়ী ব্যবহার করে।</p><p>[২] (অথবা প্রত্যেক অধিক আমলকারীকে অধিক সওয়াব দান করবেন। অথবা যে পাপ করবে তাকে একটি পাপেরই শাস্তি দেবেন; কিন্তু যে পুণ্য করবে, তাকে ঐ একটির বিনিময়ে ১০টি পুণ্য দান করবেন। আর সে মর্যাদা ও পুণ্য হল, ইহকালে সম্মান এবং পরকালে জান্নাত। <em>-সম্পাদক)</em></p><p>[৩] মহাদিন বলতে কিয়ামতের দিন।</p>","slug":"bn-tafsir-ahsanul-bayaan"},{"id":68610,"resource_id":165,"verse_key":"11:4","language_id":20,"text":"<p>আল্লাহরই নিকট তোমাদেরকে ফিরে যেতে হবে এবং তিনি প্রত্যেক বস্তুর উপর পূর্ণ ক্ষমতাবান।</p>","slug":"bn-tafsir-ahsanul-bayaan"},{"id":68611,"resource_id":165,"verse_key":"11:5","language_id":20,"text":"<p>জেনে রাখ, তারা নিজ নিজ বুক কুঞ্চিত করে, যাতে তাঁর দৃষ্টি হতে লুকাতে পারে।[১] জেনে রাখ, তারা যখন নিজেদের কাপড় (দেহে) জড়ায়, তিনি তখনও সব জানেন যা কিছু তারা গোপন করে এবং যা কিছু প্রকাশ করে। তিনি তো মনের ভিতরের কথাও জানেন।</p><p>[১] এই আয়াত অবতীর্ণ হওয়ার কারণ সম্পর্কে তফসীরবিদগণের মধ্যে মতভেদ রয়েছে, ফলে তার উদ্দেশ্য কি তাতেও মদভেদ আছে। এর পরেও সহীহ বুখারীতে (সূরা হূদের তফসীরে) বর্ণনাকৃত আয়াত অবতীর্ণ হওয়ার কারণ দ্বারা বুঝা যায় যে, উক্ত আয়াতটি সেই সকল মুসলিমদের ব্যাপারে অবতীর্ণ হয়েছে, যারা লজ্জার খাতিরে পেশাব-পায়খানার সময় এবং স্ত্রী-সহবাসের সময় উলঙ্গ হওয়াকে অপছন্দ করত; এই ভেবে যে, আল্লাহ তাআলা আমাদেরকে দেখছেন। ফলে তারা এই সময় লজ্জাস্থান আবৃত করার নিমিত্তে নিজেদের বক্ষদেশকে ঘুরিয়ে দিত। আল্লাহ তাআলা বলেন, রাত্রের অন্ধকারে যখন তারা বিছানাতে নিজেদেরকে কাপড় দ্বারা আচ্ছাদিত করে, তখনও তিনি তাদেরকে দেখেন এবং তাদের চুপে চুপে ও প্রকাশ্যে আলাপনকেও তিনি জানেন। উদ্দেশ্য হল যে, লজ্জা-শরম আপন জায়গায় ঠিক আছে, কিন্তু তাতে এত বাড়াবাড়ি করা ঠিক নয়। কারণ যে সত্তার কারণে তারা এরূপ করে, তাঁর নিকট তা গুপ্ত নয়। তবে এরূপ কষ্ট করায় লাভ কি?</p>","slug":"bn-tafsir-ahsanul-bayaan"},{"id":68612,"resource_id":165,"verse_key":"11:6","language_id":20,"text":"<p>আর ভূপৃষ্ঠে বিচরণকারী কোন এমন প্রাণী নেই যে, তার রুযী আল্লাহর দায়িত্বে নেই।[১] আর তিনি প্রত্যেকের স্থায়ী ও অস্থায়ী অবস্থানক্ষেত্র সম্বন্ধে জ্ঞান রাখেন;[২] সবই সুস্পষ্ট গ্রন্থে (লাওহে মাহ্ফুযে লিপিবদ্ধ) রয়েছে।</p><p>[১] অর্থাৎ, তিনি রুযীর যিম্মাদার ও দায়িতত্ত্বশীল। ভূপৃষ্ঠে বিচরণকারী সকল সৃষ্টিজীব, মানুষ হোক বা জীন, পশু হোক বা পক্ষীকুল, ছোট হোক বা বড়, জলচর হোক বা স্থলচর; মোটকথা, তিনি সমুদয় প্রাণীকে তার প্রয়োজন মত রুযী দান করেন।</p><p>[২] مستقر ومستودع (স্থায়ী ও অস্থায়ী অবস্থানক্ষেত্র)এর ব্যাখ্যার ব্যাপারে মতভেদ রয়েছে। অনেকের নিকট مستقر হল চলা ফেরা করতে করতে যেখানে থেমে যায় সেই জায়গা এবং যেখানে অবস্থান করে তা হল مستودع । কেউ কেউ বলেন, মায়ের গর্ভাশয় হল مستقر আর পিতার পিঠ হল مستودع। আবার অনেকের নিকট মানুষ বা পশু জীবিত অবস্থায় যেখানে অবস্থান করে তা হল তার مستقر এবং মৃত্যুর পর যেখানে দাফন করা হবে তা হল তার مستودع। (তাফসীর ইবনে কাসীর) ইমাম শওকানী (রঃ) বলেন, مستقر হল মায়ের গর্ভাশয় এবং مستودع হল পৃথিবীর সেই অংশ যেখানে মানুষ দাফন হয়। ইমাম হাকেমের এক বর্ণনা অনুযায়ী এই অর্থকেই প্রাধান্য দেওয়া হয়েছে। সুতরাং অর্থ যাই হোক, আয়াতের অর্থ পরিষ্কার যে, আল্লাহ তাআলা সকলের (স্থায়ী ও অস্থায়ী অবস্থানক্ষেত্র) সম্পর্কে অবগত। তিনি সকলকে রুযী দানের ক্ষমতা রাখেন এবং তিনি রুযীর দায়িতত্ত্বশীল। আর তিনি আপন দায়িতত্ত্ব পূর্ণ করে থাকেন।</p>","slug":"bn-tafsir-ahsanul-bayaan"},{"id":68613,"resource_id":165,"verse_key":"11:7","language_id":20,"text":"<p>আর তিনিই সেই মহান সত্তা, যিনি আকাশমন্ডলী ও পৃথিবীকে ছ দিনে সৃষ্টি করেছেন এবং সেই সময় তাঁর আরশ পানির উপরে ছিল;[১] যাতে তোমাদেরকে পরীক্ষা করে নেন, তোমাদের মধ্যে কর্মে উত্তম কে?[২] আর যদি তুমি বল, ‘নিশ্চয়ই তোমাদেরকে মৃত্যুর পর জীবিত করা হবে’, তাহলে যারা অবিশ্বাসী তারা অবশ্যই বলবে, ‘এটা তো সুস্পষ্ট যাদু।’</p><p>[১] এ কথাই সহীহ হাদীসেও বর্ণিত হয়েছে। সুতরাং এক হাদীসে পাওয়া যায় যে, \"আল্লাহ তাআলা আকাশ ও পৃথিবী সৃষ্টির পঞ্চাশ হাজার বছর পূর্বে, সমস্ত মাখলুকাতের ভাগ্য লিখেছেন। আর সেই সময় তাঁর আরশ পানির উপর ছিল।\" <em>(বুখারী ও মুসলিম)</em></p><p>[২] অথবা কে উত্তম কর্ম করে? অর্থাৎ এই আকাশ ও পৃথিবী শুধু শুধু বেকার ও বিনা উদ্দেশ্যে সৃষ্টি করেননি; বরং তার পশ্চাতে উদ্দেশ্য হল, মানুষ ও জীন জাতিকে পরীক্ষা করা যে, তাদের মধ্যে কে সৎকর্ম করছে?</p><p><u>বিঃদ্রঃ</u>- আল্লাহ তাআলা এখানে এই কথা বলেননি যে, কে সবচেয়ে বেশি পরিমাণ আমল করে; বরং এই কথা বলেছেন যে, কে সবচেয়ে বেশি ভালো আমল করে। কারণ ভালো, উত্তম বা নেক আমল হল তা, যা একমাত্র আল্লাহর সন্তুষ্টি লাভের জন্য হবে এবং সুন্নত (নবী (সাঃ) এর তরীকা) অনুযায়ী হবে। যদি কোন আমলে এই দুই শর্তের মধ্যে কোন একটি শর্ত পাওয়া না যায়, তবে তা নেক আমল নয়, তাতে তা পরিমাণে যতই বেশি হোক। আল্লাহর নিকট সেই আমলের কোন মর্যাদা নেই।</p>","slug":"bn-tafsir-ahsanul-bayaan"},{"id":68614,"resource_id":165,"verse_key":"11:8","language_id":20,"text":"<p>আর যদি আমি নির্দিষ্ট কিছু দিনের জন্য[১] তাদের শাস্তিকে বিলম্বিত করি, তাহলে তারা অবশ্যই বলবে, ‘সেই শাস্তিকে কিসে আটক রাখছে?’ স্মরণ রেখ, যেদিন ওটা তাদের উপর এসে পড়বে, তখন তা ফিরাবার কেউ থাকবে না, আর যা নিয়ে তারা উপহাস করছিল, তা এসে তাদেরকে ঘিরে নেবে। [২]</p><p>[১] أُمَّةٌ (উম্মাহ বা উম্মত) শব্দটি কুরআন শরীফের বিভিন্ন স্থানে বিভিন্ন অর্থে ব্যবহার হয়েছে। শব্দটি أم থেকে উৎপত্তি, যার অর্থ হল উদ্দেশ্য। এখানে এর অর্থ হল সেই মেয়াদ ও সময়, যা সময় আযাব অবতীর্ণ করার জন্য উদ্দিষ্ট। <em>(ফাতহুল কাদীর)</em> সূরা ইউসুফের ১২:৪৫নং (وَادَّكَرَ بَعْدَ أُمَّةٍ) আয়াতেও একই অর্থ পাওয়া যায়। এ ছাড়া আরো যে অর্থে শব্দটি ব্যবহার হয়েছে, তার মধ্যে একটি অর্থ হল, ইমাম বা নেতাঃ যেমন (إِنَّ إِبْرَاهِيمَ كَانَ أُمَّةً) অর্থাৎ, নিশ্চয় ইবরাহীম ছিল একজন ইমাম। <em>(সূরা নাহল ১৬:১২০)</em> মিল্লাত, দ্বীন বা মতাদর্শঃ যেমন (إِنَّا وَجَدْنَا آبَاءَنَا عَلَى أُمَّةٍ) অর্থাৎ, আমরা তো আমাদের পূর্বপুরুষদেরকে এক মতাদর্শের অনুসারী পেয়েছি। <em>(সূরা যুখরুফ ৪৩:২৩)</em> জামাআত বা দলঃ যেমন (وَلَمَّا وَرَدَ مَاءَ مَدْيَنَ وَجَدَ عَلَيْهِ أُمَّةً مِنَ النَّاسِ) অর্থাৎ, যখন সে মাদয়্যানের কূপের নিকট পৌঁছল, দেখল একদল লোক তাদের পশুগুলিকে পানি পান করাচ্ছে। <em>(সূরা ক্বাস্বাস ২৮:২৩)</em> (وَمِن قَوْمِ مُوسَى أُمَّةٌ) অর্থাৎ, মূসার সম্প্রদায়ের মধ্যে এমন একদল রয়েছে যারা (অন্যকে) ন্যায় পথ দেখায় ও ন্যায় বিচার করে। <em>(সূরা আ'রাফ ৭:১৫৯)</em> ইত্যাদি। আরো একটি অর্থ হল সেই বিশেষ সম্প্রদায় বা জাতি যাদের নিকট কোন রসূল প্রেরিত হয়েছিলেনঃ (وَلِكُلِّ أُمَّةٍ رَسُولٌ) অর্থাৎ, প্রত্যেক জাতির জন্য এক একজন রসূল ছিল। <em>(সূরা ইউনুস ১০:৪৭)</em> একে উম্মতে দাওয়াতও বলা হয়। অনুরূপ নবীদের প্রতি ঈমান আনয়নকারী জাতিকে উম্মত বা উম্মতে ইত্তিবা' বা উম্মতে ইজাবাহ বলা হয়। <em>(ইবনে কাসীর)</em>[২] এখানে তাড়াতাড়ি চাওয়াকে ঠাট্টা-উপহাস করা বলা হয়েছে। কারণ তাদের সেই তাড়াতাড়ি ঠাট্টা-উপহাস স্বরূপই হত। সুতরাং উদ্দেশ্য তাদেরকে এই কথা বুঝানো যে, আল্লাহ তাআলার পক্ষ থেকে আযাবে দেরী হওয়াতে মানুষের উদাসীন হওয়া উচিত নয়। যেহেতু তাঁর আযাব যে কোন সময় আসতে পারে।</p>","slug":"bn-tafsir-ahsanul-bayaan"},{"id":68615,"resource_id":165,"verse_key":"11:9","language_id":20,"text":"<p>আর যদি আমি মানুষকে স্বীয় অনুগ্রহ আস্বাদন করিয়ে তার নিকট হতে তা ছিনিয়ে নিই, তাহলে সে নিরাশ ও অকৃতজ্ঞ হয়ে পড়ে।[১]</p><p>[১] সাধারণতঃ মানুষের মধ্যে যে খারাপ গুণ পাওয়া যায়, এই আয়াতে ও পরের আয়াতে তারই বর্ণনা রয়েছে। হতাশা ভবিষ্যতের সাথে সম্পৃক্ত আর অকৃতজ্ঞতা অতীত ও বর্তমানের সাথে সম্পৃক্ত।</p>","slug":"bn-tafsir-ahsanul-bayaan"},{"id":68616,"resource_id":165,"verse_key":"11:10","language_id":20,"text":"<p>আর যদি তার উপর আপতিত কোন কষ্টের পর তাকে কোন নিয়ামত আস্বাদন করাই, তাহলে সে বলতে শুরু করে, ‘আমার সব দুঃখ-কষ্ট দূর হয়ে গেল’; [১] (আর তখন) সে উৎফুল্ল অহংকারী হয়ে যায়। [২]</p><p>[১] অর্থাৎ, ভাবে যে আমার কষ্টের সময় অতিবাহিত হয়ে গেছে। আমার আর কোন কষ্ট আসবে না।</p><p>[২] অর্থাৎ, তার নিকট যা কিছু থাকে, তা নিয়ে আনন্দে আত্মহারা হয়ে যায় এবং অন্যদের উপর অহংকার করে। অবশ্য এই মন্দ গুণ থেকে মু'মিন ও সৎকর্মশীলগণ স্বতন্ত্র, যেমন পরের আয়াতে এই কথা পরিষ্কার বুঝা যায়।</p>","slug":"bn-tafsir-ahsanul-bayaan"}],"pagination":{"per_page":10,"current_page":1,"next_page":2,"total_pages":13,"total_records":123}}
