{"tafsirs":[{"id":74841,"resource_id":166,"verse_key":"11:1","language_id":20,"text":"<p>আলিফ–লাম-রা, এ কিতাব, যার আয়াতসমূহ সুস্পষ্ট [১] , সুবিন্যস্ত ও পরে বিশদভাবে বিবৃত [২] প্রজ্ঞাময়, সবিশেষ অবহিত সত্তার কাছ থেকে [৩];</p><p><b> সূরা সংক্রান্ত আলোচনাঃ </b></p><p><b> আয়াত সংখ্যাঃ ১২৩। </b></p><p><b> নাযিল হওয়ার স্থানঃ  </b></p><p>সূরা হুদ মক্কায় নাযিল হয়েছে। [ইবন কাসীর]</p><p><b> নামকরণঃ </b></p><p>এ সূরার নাম সূরা হুদ। একজন প্রখ্যাত রাসূলের নামে এর নামকরণ করা হয়েছে। তার বাহ্যিক কারণ হচ্ছে, এ সূরার ৫৩ নং আয়াতে এর উল্লেখ আছে। যেখানে হুদ আলাইহিস সালাম ও তার কাওমের মধ্যকার কথোপকথন আলোচনা করা হয়েছে।</p><p><b> সূরা সংক্রান্ত বিশেষ জ্ঞাতব্যঃ  </b></p><p>এ সূরাটি অত্যন্ত গুরুত্বপূর্ণ। কারণ, সুরা হুদ ঐসব সুরার অন্যতম যাতে পূর্ববর্তী জাতি সমুহের উপর আপতিত আল্লাহর গযব ও বিভিন্ন কঠিন আযাবের এবং পরে কেয়ামতের ভয়াবহ ঘটনাবলী এবং পুরস্কার ও শাস্তির কথা বিশেষ বর্ণনারীতির মাধ্যমে উল্লেখ করা হয়েছে। এ কারণেই আবু বকর রাদিয়াল্লাহু আনহু একদিন রাসূলুল্লাহ সাল্লাল্লাহু আলাইহি ওয়া সাল্লামকে জিজ্ঞেস করলেন- ইয়া রাসুলাল্লাহ! আপনি বার্ধক্যে উপনীত হয়েছেন দেখতে পাচ্ছি। তখন রাসূলুল্লাহ সাল্লাল্লাহু আলাইহিস সালাম বললেনঃ হ্যাঁ, সুরা হুদ এবং ওয়াকি'আ, মুরসালাত, আম্মা ইয়াতাসাআলুন, ইযাস-শামছু কুওওয়িরাত আমাকে বৃদ্ধ করে দিয়েছে। [তিরমিয়ীঃ৩২৯৭] উদ্দেশ্য এই যে, উক্ত সুরাগুলিতে বর্ণিত বিষয়বস্তু অত্যন্ত ভয়াবহ ও ভীতিপ্রদ হওয়ার কারণে এসব সূরা নাযিল হওয়ার পর রাসূলুল্লাহ সাল্লাল্লাহু আলাইহিস সালাম এর পবিত্র চেহারায় বার্ধক্যের লক্ষণ দেখা দেয়। কোন কোন মুফাসসির বলেন, এ সূরার একটি আয়াতে এসেছে,</p><p>(فَاسۡتَقِمۡ کَمَاۤ  اُمِرۡتَ)</p><p>“যেভাবে আপনাকে নির্দেশ দেয়া হয়েছে সেভাবে দৃঢ়পদ থাকুন” [সূরা হুদ - ১১২] এ নির্দেশই রাসূলুল্লাহ সাল্লাল্লাহু আলাইহি ওয়া সাল্লামকে বৃদ্ধ করে দিয়েছে। [কুরতুবী]।</p><p>---------------</p><p>[১] অর্থাৎ এ কিতাবে যেসব কথা বলা হয়েছে সেগুলো পাকা ও অকাট্য কথা এবং সেগুলোর কোন নড়াচড় নেই। ভালোভাবে যাচাই পর্যালোচনা করে সে কথাগুলো বলা হয়েছে। সুতরাং কুরআন পাকের আয়াতসমূহ সামগ্রিকভাবে সুপ্রতিষ্ঠিত, অপরিবর্তিত। বাতিল এর কাছে প্রবেশের কোন সুযোগ পায় না [তাবারী] তাওরাত, ইঞ্জীল ইত্যাদি পূর্ববর্তী কিতাবসমূহ পবিত্র কুরআন নাযিলের ফলে যেভাবে মনসূখ বা রহিত হয়েছে কুরআন পাক নাযিল হওয়ার পর যেহেতু নবীর আগমন এবং ওহীর ধারাবাহিকতা সমাপ্ত হয়ে গেছে সুতরাং কেয়ামত পর্যন্ত এ কিতাব আর রহিত হবে না। [কুরতুবী] এর আয়াতসমূহ শব্দের দিক থেকে মুহকাম বা সুপ্রতিষ্ঠিত ও অপরিবর্তিত। হাসান ও আবুল আলীয়া বলেন, নির্দেশ ও নিষেধ দ্বারা এটাকে মজবুত করা হয়েছে। [তাবারী; কুরতুবী]</p><p>[২] অর্থাৎ এ আয়াতগুলো বিস্তারিতও। এর মধ্যে প্রত্যেকটি কথা খুলে খুলে ও স্পষ্টভাবে বলা হয়েছে। বক্তব্য জটিল, বক্র ও অস্পষ্ট নয়। প্রত্যেকটি কথা আলাদা আলাদা করে পরিষ্কারভাবে বুঝিয়ে বলা হয়েছে। এর অর্থ, ওয়াদা, ধমক, সাওয়াব ও শাস্তির বিষয়াদি এতে বিস্তারিত বর্ণনা করা হয়েছে। [তাবারী; কুরতুবী] কাতাদা বলেন, আল্লাহ্ এটাকে বাতিলের জন্য অপ্রতিরোধ্য করেছেন, তারপর হালাল ও হারাম সংক্রান্ত বিষয়াদি বিস্তারিত বর্ণনা করেছেন। [তাবারী] মুজাহিদ বলেন, সামগ্রিকভাবে এটাকে মজবুত করেছেন। তারপর তাওহীদ, নবুওয়াত ও আখেরাতের পুনরুত্থানের বর্ণনা এক একটি আয়াত করে প্রদান করা হয়েছে। [কুরতুবী] সুতরাং এতে আকায়েদ, ইবাদত, লেন-দেন আচার ব্যবহার ও নীতি নৈতিকতার বিষয়বস্তুগুলোকে ভিন্ন ভিন্ন আয়াতে পৃথক পৃথক ভাবে বর্ণনা করা হয়েছে। এর আরেক অর্থ এও হতে পারে যে, আল্লাহ তা'আলার পক্ষ হতে তো পূর্ণ কুরআন মজীদ একসাথে লাওহে মাহফুজে উৎকীর্ণ করা হয়েছে, কিন্তু তারপর স্থান কাল পাত্র পরিস্থিতি ও পারিপার্শ্বিকতার প্রেক্ষিতে প্রয়োজনানুসারে অল্প অল্প করে নাযিল হয়েছে, যাতে এর স্মরণ রাখা, মর্ম অনুধাবণ ক্রমানুসারে তদনুযায়ী আমল করা সহজ হয়। [কুরতুবী] অথবা এক এক আয়াত করে পর্যায়ক্রমে নাযিল করা হয়েছে যাতে এর মধ্যে চিন্তা-গবেষণা করা যায়। [কুরতুবী]</p><p>[৩] অর্থাৎ এসব আয়াত এমন এক মহান সত্তার পক্ষ হতে আগত হয়েছে, যিনি তাঁর বাণীসমূহ ও বিধানসমূহে মহা প্রজ্ঞাময় ও সর্বজ্ঞ [ইবন কাসীর]</p>","slug":"bn-tafsir-abu-bakr-zakaria"},{"id":74842,"resource_id":166,"verse_key":"11:2","language_id":20,"text":"<p>যে, তোমরা আল্লাহ্‌ ছাড়া অন্যের ইবাদাত করো না [১], নিশ্চয় আমি তাঁর পক্ষ থেকে তোমাদের জন্য সতর্ককারী ও সুসংবাদদাতা [২]।</p><p>[১] এখানে কুরআনের সর্বাধিক গুরুত্বপূর্ণ বিষয় অর্থাৎ তাওহীদের নির্দেশ দেয়া হচ্ছে। বলা হয়েছে, একমাত্র আল্লাহ তা'আলা ছাড়া অন্য কারো বন্দেগী করবে না। অর্থাৎ এ কুরআন মজবুত ও বিস্তারিতভাবে এজন্যই নাযিল করা হয়েছে যাতে তোমরা একমাত্র আল্লাহ ছাড়া আর কারও ইবাদত না কর। [ইবন কাসীর] আয়াতের এটাও অর্থ হতে পারে যে, কুরআনকে এভাবে নাযিল করেছি যাতে আপনি মানুষকে নির্দেশ দেন যে, তোমরা এক আল্লাহ ব্যতীত আর কারও ইবাদত করবে না। [কুরতুবী] মোটকথা: আয়াতে কুরআনের বিষয়বস্তুর মধ্যে সর্বাধিক অগ্রাধিকারপ্রাপ্ত ও গুরুত্বপূর্ণ বিষয় হচ্ছে, একমাত্র আল্লাহ তা'আলা ব্যতীত অন্য কারো ইবাদত করা যাবে না, যাকে তাওহীদুল উলুহিয়্যাহ বলা হয়। এটাকে প্রতিষ্ঠিত করতে বলা হয়েছে। মূলতঃ এটাই সমস্ত নবী-রাসূলদের প্রেরণের উদ্দেশ্য। এ কথা আল্লাহ তা'আলা পবিত্র কুরআনের অন্যান্য আয়াতেও বিস্তারিত উল্লেখ করেছেন। [যেমন, সূরা আল-আম্বিয়াঃ ২৫, সূরা আন-নাহলঃ ৩৬]</p><p>[২] এখানে কুরআনের দ্বিতীয় গুরুত্বপূর্ণ বিষয় উল্লেখ করা হচ্ছে, আর তা হচ্ছেঃ রিসালাত। ইরশাদ হচ্ছে, “নিশ্চয় আমি তোমাদেরকে আল্লাহর পক্ষ হতে সতর্ককারী ও সুসংবাদদাতা”। এ আয়াতে বিশ্বনবী সাল্লাল্লাহু আলাইহিস সালামকে নির্দেশ দেয়া হয়েছে, তিনি সারা বিশ্ববাসীকে যেন জানিয়ে দেন যে, আমি আল্লাহ তা'আলার তরফ থেকে ভীতি প্রদর্শনকারী ও সুসংবাদ প্রদানকারী। যে আমার অনুসরণ করবে সে আল্লাহ্‌র শাস্তি থেকে মুক্তি পাবে এবং জান্নাতে যাবে, আর যে আমার বিরোধিতা করবে সে কঠোর শাস্তিতে নিপতিত হবে। হাদীসে এসেছে, রাসূল সাল্লাল্লাহু আলাইহি ওয়াসাল্লাম সাফা পাহাড়ে আরোহণ করে কুরাইশদের সমস্ত শাখা গোত্রকে ডেকে বললেনঃ “হে কুরাইশ সম্প্রদায়! আমি যদি তোমাদেরকে এ সংবাদ দেই যে, এক আক্রমণকারী সেনাদল তোমাদেরকে আক্রমণ করতে যাচ্ছে তাহলে কি তোমরা আমার কথায় বিশ্বাস করতে পারবে?” তারা বললঃ আমরা তো আপনাকে কখনো মিথ্যা বলতে শুনিনি। তখন তিনি বললেনঃ “তাহলে আমি তোমাদের জন্য এক কঠোর শাস্তির ভীতিপ্রদর্শনকারী”। [বুখারীঃ ১৩৯৪, মুসলিমঃ ২০৮]</p>","slug":"bn-tafsir-abu-bakr-zakaria"},{"id":74843,"resource_id":166,"verse_key":"11:3","language_id":20,"text":"<p>আরো যে, তোমরা তোমাদের রবের কাছে ক্ষমা প্রার্থনা কর, তারপর তাঁরদিকে ফিরে আস [১], তিনি তোমাদেরকে এক নির্দিষ্ট কালের এক উত্তম জীবন উপভোগ করতে দেবেন [২] এবং তিনি প্রত্যেক গুণীজনকে তার প্রাপ্য মর্যাদা দান করবেন [৩]। আর যদি তোমরা মুখ ফিরিয়ে নাও, তবে নিশ্চয় আমি তোমাদের উপর মহাদিনের শাস্তির আশংকা করি।</p><p>[১] অর্থাৎ আমি তোমাদেরকে পূর্ববর্তী যাবতীয় গুণাহ হতে ক্ষমা চেয়ে আল্লাহর দরবারে ফিরে আসার আহবান জানাই। এবং ভবিষ্যতে একমাত্র আল্লাহর সান্নিধ্যে থাকার প্রচেষ্টা চালাতে বলি। হাদীসে এসেছে, রাসূলুল্লাহ সাল্লাল্লাহু আলাইহি ওয়া সাল্লাম বলেছেন, হে লোকসকল! তোমরা আল্লাহর কাছে তাওবা করো, কারণ আমি দিনে একশত বার তার কাছে তাওবা করি। [মুসলিম: ২৭০২]</p><p>[২] অর্থাৎ দুনিয়ায় তোমাদের অবস্থান করার জন্য যে সময় নির্ধারিত রয়েছে সেই সময় পর্যন্ত তিনি তোমাদের খারাপভাবে নয় বরং ভালোভাবেই রাখবেন। তাঁর নিয়ামতসমূহ তোমাদের ওপর বর্ষিত হবে। তাঁর বরকত ও প্রাচুর্য লাভে তোমরা ধন্য হবে। তোমরা সচ্ছল ও সুখী-সমৃদ্ধ থাকবে। তোমাদের জীবন শান্তিময় ও নিরাপদ হবে। তোমরা লাঞ্ছনা, হীনতা ও দীনতার সাথে নয় বরং সম্মান ও মর্যাদার সাথে জীবন যাপন করবে। এ বক্তব্যটিই সূরা নাহ্‌লের ৯৭নং আয়াতে এভাবে বলা হয়েছেঃ “যে ব্যক্তিই ঈমান সহকারে সৎকাজ করবে, সে পুরুষ হোক বা নারী, আমি তাকে পবিত্র জীবন দান করবো।” অনুরূপভাবে এক হাদীসে রাসূলুল্লাহ সাল্লাল্লাহু আলাইহি ওয়াসাল্লাম বলেছেনঃ “তুমি আল্লাহর সন্তুষ্টি লাভের উদ্দেশ্যে যাই খরচ করবে তাতেই আল্লাহ্‌র কাছ থেকে এর জন্য সওয়াব পাবে। এমনকি যা তোমার স্ত্রীর মুখে তুলে দাও তাতেও\"। [বুখারীঃ ৫৬, মুসলিমঃ ১৬২৮] আবদুল্লাহ ইবনে মাসউদ রাদিয়াল্লাহু আনহু বলেনঃ \"যদি কেউ গুণাহর কাজ করে তখন তার জন্য একটি গুণাহ লিখা হয়। পক্ষান্তরে যদি সওয়াবের কাজ করে তবে তার জন্য দশটি সওয়াব লিখা হয়। তারপর যদি দুনিয়াতে তার গুণাহের শাস্তি পেয়ে যায় তবে তার জন্য আখেরাতে দশটি সওয়াবই বাকী থাকে, কিন্তু যদি দুনিয়াতে শাস্তি না পায় তবে আখেরাতে একটি গুণাহের বিনিময়ে একটি সওয়াব চলে গেলেও তার আরও নয়টি সওয়াব অবশিষ্ট থাকে। সুতরাং যার একক দশকের উপর প্রাধান্য পায় তার তো ধ্বংসই অনিবার্য। [তাবারী]। এরপর আয়াতে বলা হয়েছে, তাদেরকে আল্লাহ উত্তম জীবন সামগ্রী প্রদান করবেন। এ হচ্ছে ইস্তেগফার ও তাওবার ফল। [কুরতুবী] উন্নত অবস্থা, দুনিয়াতে সার্বিক নিরাপত্তা বোঝানো হয়েছে। আর ‘নির্দিষ্ট সময়’ বলে মৃত্যুকে বোঝানো হয়েছে। অন্য আয়াতেও সেটা বলা হয়েছে, যেমন হুদ আলাইহিস সালাম তার কাওমকে বলেছিলেন, “হে আমার সম্প্রদায়! তোমরা তোমাদের রবের কাছে ক্ষমা প্রার্থনা কর, তারপর তার দিকেই ফিরে আস। তিনি তোমাদের উপর প্রচুর বৃষ্টি বর্ষাবেন। আর তিনি তোমাদেরকে আরো শক্তি দিয়ে তোমাদের শক্তি বৃদ্ধি করবেন এবং তোমরা অপরাধী হয়ে মুখ ফিরিয়ে নিও না” [সূরা হুদ: ৫২] অনুরূপ নূহ আলাইহিস সালামের সাথে তার কাওমের কথোপকথন সম্পর্কে আল্লাহ বলেন, “অতঃপর বলেছি, জন্য প্রচুর বৃষ্টিপাত করবেন, এবং তিনি তোমাদেরকে সমৃদ্ধ করবেন ধন-সম্পদ ও সন্তান-সন্ততিতে এবং তোমাদের জন্য স্থাপন করবেন উদ্যান ও প্রবাহিত করবেন নদী-নালা\" [সূরা নূহ ১০-১২] হাদীসে এসেছে, রাসূলুল্লাহ সাল্লাল্লাহু আলাইহি ওয়া সাল্লাম বলেছেন, হে লোকসকল! তোমরা আল্লাহর কাছে তাওবা করো, কারণ আমি দিনে একশত বার তার কাছে তাওবা করি। [মুসলিম: ২৭০২]</p><p>[৩] মুজাহিদ বলেন, এর অর্থ, তার যে সমস্ত কাজ সে সওয়াবের আশায় করেছে। চাই তা সম্পদ ব্যয়ের মাধ্যমে হোক অথবা হাত বা পা দ্বারা কোন ভাল আমল করেছে, অথবা কোন ভাল কথা বলেছে, অথবা তার যে সমস্ত ভাল কাজ অতিরিক্ত করেছে সে সবই তাকে প্রদান করা হবে। [তাবারী] কাতাদা বলেন, তা আখেরাতে প্রদান করা হবে [তাবারী]</p>","slug":"bn-tafsir-abu-bakr-zakaria"},{"id":74844,"resource_id":166,"verse_key":"11:4","language_id":20,"text":"<p>আল্লাহ্‌রই কাছে তোমাদের ফিরে যাওয়া এবং তিনি সবকিছুর উপর ক্ষমতাবান।</p>","slug":"bn-tafsir-abu-bakr-zakaria"},{"id":74845,"resource_id":166,"verse_key":"11:5","language_id":20,"text":"<p>জেনে রাখ ! নিশ্চয় তারা তাঁর কাছে গোপন রাখার জন্য তাদের বক্ষ দ্বিভাঁজ করে। জেনে রাখ ! তারা যখন নিজেদেরকে বস্ত্রে আচ্ছাদিত করে তখন তারা যা গোপন করে ও প্রকাশ করে, তিনি তা জানেন [১]। অন্তরে যা আছে, নিশ্চয় তিনি তা সবিশেষে অবগত।</p><p>[১] আলোচ্য আয়াতে বলা হয়েছে যে, কাফেরগণ সন্দেহ সংশয় করে মুখ লুকিয়ে থাকে আর মনে করে যে, এর মাধ্যমে তারা নিজেদেরকে আড়াল করতে পারবে। তারা মূলতঃ আল্লাহ থেকে কখনো আড়াল করতে পারবে না। কেননা, আল্লাহ্ তাআলা থেকে কোন কিছুই আড়াল নেই। তাই যত চেষ্টাই করুক না কেন তারা নিজেদের আড়াল করতে পারবে না। অন্য আয়াতে আল্লাহ্ তা'আলা বলেনঃ “আমরাই মানুষকে সৃষ্টি করেছি এবং তার প্রবৃত্তি তাকে যে কুমন্ত্রণা দেয় তা আমি জানি \" [সূরা কাফঃ ১৬] অন্য আয়াতে আল্লাহ বলেনঃ “আর জেনে রাখ যে, তোমাদের অন্তরে যা গোপন আছে আল্লাহ্ তা জানেন সুতরাং তোমরা তাকে ভয় কর”। [সূরা আল-বাকারাহঃ ২৩৫] অন্য আয়াতে বলেনঃ “তারপর আমরা অবশ্যই জ্ঞানসহ তাদের কাছে তা ব্যক্ত করব, আর আমরা তো অনুপস্থিত ছিলাম না\" [সূরা আল-আ’রাফঃ ৭] আরও বলেনঃ “আপনি যে কোন অবস্থায় থাকেন এবং আপনি সে সম্পর্কে কুরআন থেকে যা তিলাওয়াত করেন এবং তোমরা যে কোনো কাজ কর, আমি তোমাদের পরিদর্শক--যখন তোমরা তাতে প্রবৃত্ত হও। আকাশমণ্ডলী ও পৃথিবীর অণু পরিমাণও আপনার প্রতিপালকের দৃষ্টির বাইরে নয় এবং তার চেয়ে ক্ষুদ্রতর বা বৃহত্তর কিছুই নেই যা সুস্পষ্ট কিতাবে নেই”। [সূরা ইউনুসঃ ৬১]</p><p>তবে তারা যে শুধু হক শোনা থেকে মুখ ফিরিয়ে নিত তা’ই নয়। বরং তারা রাসূল সাল্লাল্লাহু আলাইহি ওয়াসাল্লাম আল্লাহ্‌র যে বাণী শোনাত তা’ও না শোনার ভান করত। আর মনে করত যে, এভাবে তারা আল্লাহ্‌ থেকে গোপন করছে। কারণ, মক্কায় যখন নবী সাল্লাল্লাহু আলাইহি ওয়া সাল্লামকে নিয়ে আলোচনা-সমালোচনা শুরু হলো তখন সেখানে এমন বহু লোক যারা বিরোধিতায় প্রকাশ্যে তেমন একটা তৎপর ছিল না কিন্তু মনে মনে তার দাওয়াতের প্রতি ছিল চরমভাবে ক্ষুব্ধ ও বিরূপভাবাপন্ন। তারা তাঁকে পাশ কাটিয়ে চলতো। তাঁর কোন কথা শুনতে চাইতো না। কোথাও তাঁকে বসে থাকতে দেখলে পেছন ফিরে চলে যেতো। দূর থেকে তাঁকে আসতে দেখলে মুখ ফিরিয়ে নিতো অথবা কাপড়ের আড়ালে মুখ লুকিয়ে ফেলতো, যাতে তাঁর মুখোমুখি হতে না হয় এবং তিনি তাদেরকে সম্বোধন করে কথা বলতে শুরু করে না দেন। এখানে এ ধরনের লোকদের প্রতি ইংগিত করা হয়েছে। [তাবারী; বাগভী; সাদী; ফাতহুল কাদীর] আয়াতের অপর অনুবাদ হচ্ছে, তারা আল্লাহর কাছ থেকে বা রাসূলের কাছ থেকে নিজেদের লুকানোর জন্য মাথা নীচু করে সামনের দিকে ঝুঁকে কাপড় দিয়ে ঢেকে চলে যেত। অথচ যত কাপড় দিয়েই তারা নিজদেরকে ঢাকুক না কেন আল্লাহ্ তা'আলা ঠিকই তাদের দেখছেন। [ইবন কাসীর] তাই আয়াতে বলা হয়েছে, এরা সত্যের মুখোমুখি হতে ভয় পায় এবং উটপাখির মত বালির মধ্যে মুখ গুজে রেখে মনে করে, যে সত্যকে দেখে তারা মুখ লুকিয়েছে তা অন্তহিত হয়ে গেছে। অথচ সত্য নিজের জায়গায় দাঁড়িয়ে আছে এবং এ তামাশাও দেখছে যে, এ নির্বোধরা তার থেকে বাঁচার জন্য মুখ লুকাচ্ছে। অথবা আয়াতের অর্থ, তারা তাদের কুফর তাদের অন্তরে গোপন করে রাখে আর মনে করে যে, আল্লাহ থেকে গোপন করছে। অথচ তারা যত কাপড় দিয়েই নিজেদেরকে আড়াল করুক না কেন আল্লাহ্‌ তো তাদের অবস্থা জানেন। [মুয়াসসার]</p><p>আবার তাদের মধ্যে এমন কতিপয় লোকও ছিল যারা তাদের প্রাত্যহিক গোপনীয় কাজসমূহ যেমন স্ত্রী-সহবাস, পায়খানা ব্যবহার করার সময়ও নিজেদের কাপড় খুলতে লজ্জাবোধ করত এবং তা আকাশের দিকে হয়ে যাওয়ার ভয় করত। কিন্তু অন্যান্য সময় আল্লাহর কোন খেয়াল রাখত না। তাই আল্লাহ তা'আলা তাদের এ অদ্ভুত কর্মকাণ্ডের সমালোচনা করে এ আয়াত নাযিল করেন। ইবনে আব্বাস রাদিয়াল্লাহু আনহুমা বলেনঃ ‘তারা (কাফেরগণ) স্ত্রী-সহবাসের সময় বা পায়খানা ব্যবহার করার সময় আকাশের দিকে মুখ করতে লজ্জাবোধ করত এবং কাপড় দিয়ে নিজেদের মাথা ঢেকে রাখত। তখন আল্লাহ এ আয়াত নাযিল করেন। [বুখারীঃ ৪৬৮১, ৪৬৮২, ৪৬৮৩]</p>","slug":"bn-tafsir-abu-bakr-zakaria"},{"id":74846,"resource_id":166,"verse_key":"11:6","language_id":20,"text":"<p>আর যমীনে বিচরণকারী সবার জীবিকার [১] দায়িত্ব আল্লাহ্‌রই [২] এবং তিনি সেসবের স্থায়ী ও অস্থায়ী অবস্থিতি [৩] সম্বন্ধে অবহিত; সবকিছুই সুস্পষ্ট কিতাবে আছে [৪]।</p><p>[১]  রিযিকের আভিধানিক অর্থ এমন বস্তু যা কোন প্রাণী আহার্যরূপে গ্রহণ করে, যার দ্বারা সে দৈহিক শক্তি সঞ্চয়, প্রবৃদ্ধি সাধন এবং জীবন রক্ষা করে থাকে। রিযিকের জন্য মালিকানা স্বত্ব শর্ত নয়। সকল জীব জন্তু রিযিক ভোগ করে থাকে কিন্তু তারা তার মালিক হয় না। কারণ, মালিক হওয়ার যোগ্যতাই ওদের নেই। অনুরূপভাবে ছোট শিশুরাও মালিক নয়, কিন্তু ওদের রিযিক অব্যাহতভাবে তাদের কাছে পৌছতে থাকে। [কুরতুবী]</p><p>[২] এমন সব প্রাণীকে (دابة) বলে যা ভূপৃষ্ঠে বিচরণ করে। [কুরতুবী] পক্ষীকুলও এর অন্তর্ভুক্ত। কারণ, খাদ্য গ্রহনের জন্য তারা ভূপৃষ্ঠে অবতরণ করে থাকে এবং তাদের বাসস্থান ভূ-পৃষ্ঠ সংলগ্ন হয়ে থাকে। সামুদ্রিক প্রাণীসমূহ ও পৃথিবীর বুকে বিচরণশীল। কেননা, সাগর-মহাসাগরের তলদেশেও মাটির অস্তিত্ব রয়েছে। মোটকথা, সমুদয় প্রাণীকুলের রিযিকের দায়িত্ব তিনি নিজেই গ্রহন করছেন। এবং একথা এমনভাবে ব্যক্ত করেছেন যা দ্বারা দায়িত্ব ও কর্তব্য নির্দেশ করা যায়। ইরশাদ হয়েছে, “তাদের রিযিকের দায়িত্ব আল্লাহর উপর ন্যস্ত”। একথা সুস্পষ্ট যে, আল্লাহ তা'আলার উপর এহেন গুরুদায়িত্ব চাপিয়ে দেয়ার মত কোন ব্যক্তি বা শক্তি নেই, বরং তিনি নিজেই অনুগ্রহ করে গ্রহন করে আমাদেরকে আশ্বস্ত করেছেন। আর এক পরম সত্য, দাতা ও সর্বশক্তিমান সত্তার ওয়াদা যাতে নড়চড় হওয়ার অবকাশ নেই। সুতরাং নিশ্চয়তা বিধান করণার্থে এখানে (على) শব্দ ব্যবহৃত হয়েছে যা ফরয বা অবশ্যকরণীয় ক্ষেত্রে ব্যবহার করা হয়। অথচ আল্লাহ্‌র উপর কোন কাজ ফরয বা ওয়াজিব হতে পারে না, তিনি কারো হুকুমের তোয়াক্কা করেন না। বরং এটি সম্পূর্ণ তার অনুগ্রহ। [কুরতুবী] কোন কোন মুফাসসির অবশ্য বলেছেন যে, এখানে (على) বা উপরে বলে (من)  বা হতে বলা উদ্দেশ্য। অর্থাৎ সবার রিযক আল্লাহ্‌র পক্ষ থেকে আসে। [কুরতুবী]</p><p>[৩] আয়াতে উল্লেখিত (مستقر) এবং (مستودع) এর অর্থ, (مستقر) শব্দটির কয়েকটি অর্থ করা হয়েছে, ১. যমীনের বুকে অবস্থান স্থল। বা পিতার পিঠে অবস্থানকে। ২. দিন বা রাতে আশ্রয় নেয়ার স্থান। আর (مستودع) শব্দটিরও কয়েকটি অর্থ বর্ণনা করা হয়েছে, ১. মায়ের রেহেমে অবস্থান বা ডিমের মধ্যে অবস্থানকে। ২. মৃত্যু হওয়ার স্থানকে। [দেখুন, তাবারী; কুরতুবী; ইবন কাসীর; সাদী] এ ব্যাপারে এক হাদীসে বর্ণিত আছে যে, রাসূলুল্লাহ সাল্লাল্লাহু আলাইহি ওয়াসাল্লাম বলেছেনঃ “যখন কারো মৃত্যু কোন যমীনে লিখা থাকে তখন সে সেখানে যাওয়ার জন্য কোন না কোন প্রয়োজন অনুভব করবে। তারপর সে যখন সেখানে পৌছবে তখন তাকে মৃত্যু দেয়া হয়। আর কিয়ামতের দিন যমীন তাকে বের করে দিয়ে বলবে, (هٰذَا ما اسْتَوْدَعْتَنِيْ) অর্থাৎ এটা আমার কাছে আপনি আমানত রেখেছিলেন। [মুস্তাদরাকে হাকিমঃ ১/৪২, সুনানুল কুবরা লিল বাইহাকীঃ ৯৮৮৯] কালেমাদ্বয়ের আরো বিস্তারিত তাফসীর সূরা আলআন’আমের ৯৮ নং আয়াতে করা হয়েছে।</p><p>[৪] আয়াতে বর্ণিত সুস্পষ্ট কিতাব বলতে লাওহে মাহফুজকে বুঝানো হয়েছে। আল্লাহ তা'আলা বান্দার সমস্ত কর্মকাণ্ড সুস্পষ্ট কিতাবে লিখে নিয়েছেন এবং তার জ্ঞান থেকে এর সামান্যও গোপন থাকে না, এটা তিনি পবিত্র কুরআনে বারবার ঘোষণা করেছেন। [দেখুন, সূরা আল-আনআমঃ৩৮, ৫৯, সূরা ইউনুসঃ ৬১]</p>","slug":"bn-tafsir-abu-bakr-zakaria"},{"id":74847,"resource_id":166,"verse_key":"11:7","language_id":20,"text":"<p>আর তিনিই আসমানসমূহ ও যমীনকে ছয় দিনে সৃষ্টি করেন, আর তাঁর ‘আর্‌শ ছিল পানির উপর [১], তোমাদের মধ্যে কে আমলে শ্রেষ্ঠ [২] তা পরীক্ষা করার জন্য [৩]। আর আপনি যদি বলেন, ‘নিশ্চয় মৃত্যুর পর তোমাদেরকে উত্থিত করা হবে’, তবে কাফেররা অবশ্যই বলবে, ‘এ তো সুস্পষ্ট জাদু [৪]।’</p><p>[১] রাসূলুল্লাহ সাল্লাল্লাহু আলাইহি ওয়াসাল্লাম বলেছেন, “আল্লাহর ডান হাত পরিপূর্ণ, দিন-রাত খরচ করলেও তা কমে না। তোমরা কি দেখ না যে, আসমান ও যমীনের সৃষ্টি সময় থেকে আজ পর্যন্ত তিনি কত বিপুল পরিমাণে খরচ করেছেন? তবুও তার ডান হাতের কিছুই কমেনি। আর তার আরশ পানির উপর অবস্থিত ছিল। তাঁর অন্য হাতে রয়েছে ইনসাফের দাঁড়িপাল্লা, সে অনুসারে বৃদ্ধি-ঘাটতি বা উন্নতি অবনতি ঘটান।[বুখারীঃ ৭৪১৯] অন্য এক বর্ণনায় এসেছে, ইমরান ইবনে হুসাইন রাদিয়াল্লাহু আনহু বলেন, রাসূলুল্লাহ সাল্লাল্লাহু আলাইহি ওয়াসাল্লাম বলেছেনঃ \"শুধু আল্লাহ্‌ই ছিলেন, তাঁর পূর্বে কেউ ছিল না। আর তাঁর আরশ ছিল পানির উপর এবং তিনি যিকর বা ভাগ্যফলে সবকিছু লিখে নেন এবং আসমানসমূহ ও যমীন সৃষ্টি করেন। [বুখারীঃ ৩১৯১] অন্য হাদীসে এসেছে, রাসূলুল্লাহ সাল্লাল্লাহু আলাইহি ওয়াসাল্লাম বলেছেন,\"আল্লাহ আসমান ও যমীন সৃষ্টির পঞ্চাশ হাজার বছর পূর্বে সমস্ত সৃষ্টি জগতের তাকদীর লিখে রেখেছেন। আর তাঁর আরশ ছিল পানির উপর\"। [মুসলিমঃ ২৬৫৩]</p><p>মোট কথা, কুরআনের ২১টি আয়াতে আরশের কথা উল্লেখ করা হয়েছে। অনুরূপভাবে সহীহ হাদীসেও রাসূলুল্লাহ সাল্লাল্লাহু আলাইহি ওয়াসাল্লাম আরশের বিভিন্ন বর্ণনা দিয়েছেন। সে সমস্ত হাদীস মুতাওয়াতির পর্যায়ে পৌছেগেছে। মূলতঃ আরশ হলো আল্লাহর প্রথম সৃষ্টি। সেটা প্রকাণ্ড ও সর্ববৃহৎ সৃষ্টি। আরশের সামনে কুরসী একটি রিং এর মতো, যেমনিভাবে আসমান ও যমীন কুরসীর সামনে রিং এর মতো। আরশের গঠন গম্বুজের মত। যা সমস্ত সৃষ্টি জগতের উপরে রয়েছে। এমনকি জান্নাতুল ফেরদাউসও আরশের নীচে অবস্থিত। আরশের কয়েকটি পা রয়েছে। মূসা আলাইহিসসালাম হাশরের মাঠে তার একটি ধরে থাকবেন। এ আরশের বহনকারী কিছু ফিরিশতা রয়েছেন। তাদের ব্যাপারে পবিত্র কুরআন ঘোষণা দিচ্ছেন যে, কিয়ামতের দিন তারা হবেন আট। [সূরা আল-হাক্কাহঃ ১৭] তবে এ ব্যাপারে ভিন্ন মত রয়েছে যে, আরশের বহনকারী ফিরিশতাগণ কি আট জন নাকি আট শ্রেণী নাকি আট কাতার। এ আয়াতে বর্ণিত পানির উপর আরশ থাকার অর্থ হচ্ছে, আল্লাহ্ তা'আলার আরশ কোন কিছু সৃষ্টি করার আগে পানির উপর ছিল। এর দ্বারা পানি আগে সৃষ্টি করা বুঝায় না। তবে এখানে পানি দ্বারা দুনিয়ার কোন সমুদ্রের পানি বুঝানো হয়নি। কেননা, তা আরো অনেক পরে সৃষ্ট। বরং এখানে আল্লাহর সৃষ্ট সুনিদিষ্ট কোন পানি উদ্দেশ্য নেয়া হয়েছে। [এ ব্যাপারে বিস্তারিত জানার জন্য দেখুন, ইবনে কাসীর প্রণীত আল- বিদায়া ওয়ান-নিহায়া ১ম খণ্ড]।</p><p>[২] লক্ষ্য করুন, আল্লাহ তা'আলা বলেছেনঃ “কে কাজে শ্রেষ্ঠ” তা তিনি পরীক্ষা করবেন। তিনি ‘কে বেশী কাজ করেছে পরীক্ষা করবেন তা কিন্তু বলেননি। কেননা, আল্লাহ্‌র দরবারে পরিমানের চেয়ে মান-সম্মত হওয়াই গ্রহণযোগ্য। আর আল্লাহ্‌র দরবারে কোন কাজ মান-সম্মত সে সময়ই হতে পারে যখন তা আল্লাহর নির্দেশ মত এবং রাসূলুল্লাহ্‌ সাল্লাল্লাহু আলাইহি ওয়াসাল্লামের প্রদর্শিত পস্থায় হবে। নতুবা তা গ্রহণযোগ্যতাই হারাবে।</p><p>[৩] এ বক্তব্যের অর্থ হচ্ছে, মহান আল্লাহ আকাশ ও পৃথিবী এজন্য সৃষ্টি করেছেন যা মূলত তোমাদের (অর্থাৎ মানুষ) সৃষ্টি করাই তাঁর উদ্দেশ্য ছিল। অর্থাৎ এর মাধ্যমে সৃষ্টিকুলকে পরীক্ষা করা। তিনি সেটাকে অকারণে বা অনাহুত তৈরী করেন নি। তিনি নিজেকে এ ধরনের অনাহুত ও বেহুদা সৃষ্টি করা থেকে পবিত্র ঘোষণা করেছেন। তাছাড়া এটাও বলেছেন যে, কাফেররাই শুধু আসমান ও যমীনকে বেহুদা সৃষ্টি করেছেন বলে মনে করে থাকে। তাদের এ ধারণার জন্য তিনি তাদের উপর কঠোর সাবধানবাণী উচ্চারণ করেছেন। তিনি বলেন, “আমি আকাশ, পৃথিবী এবং এ দুয়ের মধ্যবর্তী কোন কিছুই অনর্থক সৃষ্টি করিনি। অনর্থক সৃষ্টি করার ধারণা তাদের যারা কাফির, কাজেই কাফিরদের জন্য রয়েছে জাহান্নামের দুর্ভোগ। [সূরা সোয়াদঃ ২৭] আরো বলেনঃ “তোমরা কি মনে করেছিলে যে, আমি তোমাদেরকে অনর্থক সৃষ্টি করেছি এবং তোমরা আমার কাছে ফিরে আসবে না? মহিমান্বিত আল্লাহ্ যিনি প্রকৃত মালিক, তিনি ছাড়া কোন ইলাহ নেই; সম্মানিত আৱশের তিনি অধিপতি। [সূরা আল-মুমিনূনঃ ১১৫-১১৬] তিনি আরো বলেনঃ “আমি সৃষ্টি করেছি জিন এবং মানুষকে এজন্যেই যে, তারা একমাত্র আমারই ‘ইবাদাত করবে। [সূরা আয-যারিয়াতঃ ৫৬] হাদীসে এসেছে, রাসূলুল্লাহ সাল্লাল্লাহু আলাইহি ওয়া সাল্লাম বলেছেন, ‘মহান আল্লাহ বলেন, তুমি ব্যয় কর, তোমার উপর ব্যয় করা হবে। রাসূলুল্লাহ সাল্লাল্লাহু আলাইহি ওয়া সাল্লাম আরও বলেন, আল্লাহ্‌র হাত পরিপূর্ণ। কোন প্রকার ব্যয় তাতে কোন কিছুর ঘাটতি করে না। দিন-রাত তা প্রচুর পরিমানে দান করে। তোমরা আমাকে জানাও, আসমান ও যমীনের সৃষ্টিলগ্ন থেকে যত কিছু ব্যয় হয়েছে সেসব কিছু তার হাতে যা আছে তাতে সামান্যও ঘাটতি করে না। আর তার আরশ হচ্ছে পানির উপর এবং তার হাতেই রয়েছে মীযান, তিনি সেটাকে উপর-নীচু করেন।’ [বুখারী ৪৬৮৪; মুসলিম: ৩৭] অন্য হাদীসে ইমরান ইবন হুসাইন বলেন, ‘আমি রাসূলুল্লাহ্‌ সাল্লাল্লাহু আলাইহি ওয়া সাল্লামের কাছে প্রবেশ করলাম আর আমার উটটি দরজার কাছে বেঁধে রাখলাম। তখন তার কাছে বনু তামীম প্রবেশ করলে তিনি বললেন, বনু তামীম তোমরা সুসংবাদ গ্রহণ কর। তারা বলল, সুসংবাদ তো দিলেন, এবার আমাদেরকে কিছু দিন (সম্পদ)। এটা তারা দু’বার বললেন। তখন রাসূলের কাছে ইয়ামেনের কিছু লোক প্রবেশ করল। তিনি বললেন, হে ইয়ামেনবাসী তোমরা সুসংবাদ গ্রহণ কর, যখন বনু তামীম সেটা গ্রহণ করল না। তারা বলল, হে আল্লাহর রাসূল! আমরা তা গ্রহণ করলাম। তারা আরও বলল, আমরা এ বিষয়ে প্রথম কি তা জানতে চাই। তিনি বললেন, আল্লাহ্‌ই ছিলেন, তিনি ছাড়া আর কিছু ছিল না। আর তাঁর আরশ ছিল পানির উপর। আর তিনি সবকিছু যিকর (লাওহে মাহফুযে) লিখে রেখেছিলেন। আর তিনি আসমান ও যমীন সৃষ্টি করেন। বর্ণনাকার ইমরান ইবন হুসাইন বলেন, তখন একজন আহবানকারী ডেকে বলল, হে ইবনুল হুসাইন! তোমার উষ্ট্রীটি চলে গেছে। তখন আমি বেরিয়ে পড়ে দেখলাম, উটটি এতদুর চলে গেছে যে, যেদিকে তাকাই শুধু মরিচিকা দেখতে পাই। আল্লাহর শপথ আমার ইচ্ছা হচ্ছিল আমি যেন সেটাকে একেবারেই ছেড়ে দেই ( অর্থাৎ রাসূলের মাজলিস থেকে বের হতে তার ইচ্ছা হচ্ছিল না )\" [বুখারী: ৩১৯১]</p><p>[৪] অর্থাৎ যখন আপনি তাদেরকে পুনরুত্থানের কথা বুঝাতে থাকেন তখন তারা অট্টহাসিতে ফেটে পড়ে এবং আপনাকে এ বলে বিদ্রুপ করতে থাকে যে, আপনি তো জাদুকরের মতো কথা বলছেন। এভাবে তারা আখেরাতের দাবী ও যৌক্তিকতাকে বুঝা সত্বেও মেনে নিতে পারেনি। অথচ যিনি একবার সৃষ্টি করেছেন তারপক্ষে পূনর্বার সৃষ্টি করা কোন ব্যাপারই নয়। আল্লাহ্‌ বলেনঃ “আর তিনিই সৃষ্টিজগতকে প্রথম সৃষ্টি করেছেন তারপর তিনিই তা পূনর্বার করবেন, এটা তার জন্য অত্যন্ত সহজ।\" [সূরা আর রূমঃ ২৭] আল্লাহ আরো বলেনঃ “তোমাদের সৃষ্টি ও পূনঃসৃষ্টি তো একজনের মতই” [সূরা লুকমানঃ ২৮]</p>","slug":"bn-tafsir-abu-bakr-zakaria"},{"id":74848,"resource_id":166,"verse_key":"11:8","language_id":20,"text":"<p>নির্দিষ্ট কালের জন্য [১] আমরা যদি তাদের থেকে শাস্তি স্থগিত রাখি তবে তারা অবশ্যই বলবে, ‘কিসে সেটা নিবারণ করেছ?’ সাবধান ! যেদিন তাদের কাছে এটা আসবে সেদিন তাদের কাছে থেকে সেটাকে নিবৃত্ত করা হবে না এবং যা নিয়ে তারা ঠাট্টা- বিদ্রূপ করে তা তাদেরকে পরিবেষ্টন করবে।</p><p>[১] এখানে আল্লাহ তা'আলা (امة) শব্দটি ব্যবহার করেছেন। এ শব্দটি স্থানভেদে বিভিন্ন অর্থ প্রদান করে থাকে [দ্র: কুরতুবী]</p><p>ক) সময় বা সুনির্দিষ্ট কাল, যেমন আলোচ্য আয়াত ও সূরা ইউসুফের ৪৫ নং আয়াত। ইবন আব্বাস থেকে এখানে এ অর্থই বর্ণিত হয়েছে। [তাবারী]</p><p>খ) অনুসরণযোগ্য ইমাম, যেমন সূরা আন-নাহলের ১২০ নং আয়াতে ইবরাহীম আলাইহিসসালামের ব্যাপারে বলা হয়েছে।</p><p>গ) ধর্ম ও রীতিনীতি অর্থে, যেমন সূরা আয-যুখরুফের ২৩ নং আয়াত।</p><p>ঘ) দল বা বড় শ্রেণী বা জামা'আত তথা অনেক লোককে বুঝানোর অর্থে, যেমন সূরা আল-কাসাসের ২৩ নং আয়াত।</p><p>ঙ) জাতি অর্থে, যাতে মুমিন কাফির সবাই অন্তর্ভুক্ত। যেমন সূরা আন-নাহলঃ ৩৬, ইউনুসঃ ৪৭।</p><p>চ) শুধু ঈমানদার জাতি বুঝানোর জন্য। যেমন সুরা আলে-ইমরানঃ ১১০ ৷ অনুরূপভাবে হাদীসে এসেছে, হাশরের মাঠে রাসূলুল্লাহ সাল্লাল্লাহু আলাইহি ওয়াসাল্লাম বলবেনঃ “উম্মতি, উম্মতি” আমার উম্মত, আমার উম্মত। এখানে শুধু মুসলিম জাতিকে বুঝানো হয়েছে।</p><p>ছ) এ ছাড়া এ শব্দ দ্বারা কোন গোষ্ঠী বা অংশ বুঝানোর অর্থেও ব্যবহৃত হয়ে থাকে। যেমন, সূরা আল-আরাফঃ ১৫৯, সূরা আলে ইমরানঃ ১১৩]</p>","slug":"bn-tafsir-abu-bakr-zakaria"},{"id":74849,"resource_id":166,"verse_key":"11:9","language_id":20,"text":"<p>আর যদি আমরা মানুষকে আমাদের কাছ থেক রহমত আস্বাদন করাই [১] ও পড়ে তার কাছ থেকে আমরা তা ছিনিয়ে নেই তবে তো নিশ্চয় সে হয়ে পড়ে হতাশ ও অকৃতজ্ঞ।</p><p>[১] অন্য আয়াতেও আল্লাহ্ তা'আলা এ বিষয়টি তুলে ধরেছেন। তিনি বলেন, “আর যদি দুঃখ-দৈন্য স্পর্শ করার পর আমরা তাকে আমার পক্ষ থেকে অনুগ্রহের আস্বাদন দেই তখন সে অবশ্যই বলে থাকে, “এ আমার প্রাপ্য এবং আমি মনে করি না যে, কিয়ামত সংঘটিত হবে। আর আমি যদি আমার রবের কাছে ফিরে যাইও তার কাছে নিশ্চয় আমার জন্য কল্যাণই থাকবে।’ অতএব, আমরা কাফিরদেরকে তাদের আমল সম্বন্ধে অবশ্যই অবহিত করব এবং তাদেরকে অবশ্যই আস্বাদন করাব কঠোর শাস্তি \" [সূরা ফুসসিলাত: ৫০] আরও বলেন, “আর আমরা যখন মানুষকে আমাদের পক্ষ থেকে কোন রহমত আস্বাদন করাই তখন সে এতে উৎফুল্ল হয় এবং যখন তাদের কৃতকর্মের জন্য তাদের বিপদ-আপদ ঘটে তখন তো মানুষ হয়ে পড়ে খুবই অকৃতজ্ঞ \" [সূরা আশ-শূরা ৪৮]</p>","slug":"bn-tafsir-abu-bakr-zakaria"},{"id":74850,"resource_id":166,"verse_key":"11:10","language_id":20,"text":"<p>আর যদি দুঃখ-দৈন্য স্পর্শ করার পর আমরা তাকে সুখ আস্বাদন করাই তখন সে অবশ্যই বলবে, আমার বিপদ-আপদ কেটে গেছে ,’ আর সে হয় উৎফুল্ল ও অহংকারী।</p>","slug":"bn-tafsir-abu-bakr-zakaria"}],"pagination":{"per_page":10,"current_page":1,"next_page":2,"total_pages":13,"total_records":123}}
